4                     163.64
8                     155.40
16                    198.14
32                     95.14
64                    130.66
128                   194.23
256                   223.35
512                   990.44
1024                  505.51
2048                  358.79
4096                 1423.28
8192                 1855.81
16384                1420.21
32768                2121.11
65536                3349.01
131072               6250.40
262144              12092.64
524288              23743.69
1048576             46928.03
4                      95.44
8                      91.93
16                     92.78
32                     94.16
64                     96.85
128                   111.62
256                   186.00
512                   166.01
1024                  262.32
2048                  610.94
4096                 2056.82
8192                 2765.45
16384                1265.46
32768                1860.91
65536                3333.27
131072               6257.96
262144              12119.21
524288              23752.34
1048576             46987.50
4                     160.58
8                     171.46
16                     92.04
32                     94.35
64                    136.76
128                   105.21
256                   118.66
512                  1643.61
1024                  281.93
2048                  324.71
4096                  875.45
8192                  748.51
16384                1069.14
32768                2351.46
65536                3345.60
131072               6269.93
262144              12127.09
524288              23752.43
1048576             46987.92
4                     108.25
8                      92.14
16                     93.92
32                    150.52
64                    125.94
128                   105.61
256                   289.86
512                   143.73
1024                  449.87
2048                  527.38
4096                 1062.10
8192                 1153.33
16384                1110.27
32768                1860.00
65536                3335.78
131072               6251.72
262144              12077.18
524288              23762.02
1048576             46989.91
4                      92.59
8                      91.56
16                     92.02
32                    106.13
64                    102.61
128                   105.71
256                   182.42
512                   144.76
1024                  219.46
2048                  408.02
4096                 1330.00
8192                  999.98
16384                1018.28
32768                1921.42
65536                3337.86
131072               6253.48
262144              12090.47
524288              23757.13
1048576             47014.82
4                     143.18
8                      92.28
16                     93.08
32                    100.30
64                     97.41
128                   108.28
256                   121.29
512                  1189.78
1024                  303.74
2048                  429.36
4096                  574.89
8192                 2676.47
16384                 990.53
32768                2082.67
65536                3324.22
131072               6256.09
262144              12089.76
524288              23770.10
1048576             46985.63
4                      91.15
8                     308.29
16                    136.52
32                     94.68
64                     97.76
128                   105.91
256                   118.63
512                   144.13
1024                  280.11
2048                  677.01
4096                  770.97
8192                 3569.84
16384                1380.28
32768                1919.76
65536                3326.94
131072               6252.96
262144              12094.85
524288              23740.10
1048576             46956.16
4                     228.98
8                      92.23
16                     92.23
32                     93.13
64                     96.37
128                   106.85
256                   118.26
512                   190.04
1024                  305.20
2048                  513.73
4096                 1331.61
8192                 1694.76
16384                1132.94
32768                1925.40
65536                3328.51
131072               6257.21
262144              12100.49
524288              23775.28
1048576             46988.56
4                     199.89
8                     339.56
16                    306.25
32                    236.71
64                    146.80
128                   192.06
256                   370.54
512                   470.03
1024                  201.26
2048                  833.33
4096                  661.01
8192                 2435.72
16384                1212.04
32768                2030.96
65536                4309.55
131072               6262.22
262144              12138.22
524288              23725.72
1048576             47005.99
